on your interpretation of I would hope that this arrives in and when that becomes available on Then you can which bits are vs All within duck pretty much anything
be writing a connection handled by the Java EE app
been looking for a way to have named function arguments parameters appear in any order in Does anyone know if there is syntax to ignore order in an ANTLR parser there is a function in the language that can take two named and Since they are named like them to be able to be passed into the function in any well as both be could just list all the parameter permutations in but I was hoping there would be a more elegant especially since I have some functions that can take 5 help would be greatly named function arguments parameters in any
the easiest way would be having a httpmodule that manages the session and then using dependency injection to supply the ISession to the is pretty much approach used by and for NHibernate builds on top of the so all session management patterns still have the book though so I know how much would have to be
much research I am a little confused by which identity tracker I should use in what I understand will give me the last id updated from any table and will will return the last id from a specified given that information it would seem to me the best version to use you know which table you will be is upon reading it seems most people prefer to use What is the reasoning behind this and is there a flaw in my vs
agree with Paul that this is often solved by using a soft reference though it may evict entries earlier than you A usually acceptable solution is to use a normal cache that evicts to the soft and recovers entries on a miss if This victim caching approach works pretty giving you a lower bar but extra benefit if free memory is memory size can be determined by enabling the Java and usage is pretty simple when using the SizeOf utility only used this for debugging and recommend benchmarking the overhead before adopting it for normal my caching I am planning on adding the ability to plug in a evaluator once the core algorithm is This way you could store a collection as the but bound the cache by the sum of all collection I have seen unbounded collections as values in caches cause so having control is quite you really need and advise not we could enhance my current implementation to support You can email
little enhanced version of print a t Mon Sep 28
am working with Windows is it possible to create a window which has text in the status but has no text in the title bar at the top of the because the standard title text which prints on my Aero glass I have implemented looks terrible as too high and I am drawing my own text title and obviously want the double solution is not satisfactory as I still wish to keep a window for your help am aware of but still seeking clearer anybody feel free to put forward your title bar text of a window but keep status bar

like a common library with is what is would contain which your services should would then be shared across all The concrete implementation woul dthen be down to each just as long as they conform to the data
mentioned the comment One semicolon for an two through four on for sure your editor handles parentheses and indentation for be a real I find that function almost since not formatted like used to and the human brain parse parentheses Emacs format is the a return the value As in any calculation functions should return their with no side local variables inside This helps avoid side going to use the loop study it a bit It does have summation built hunt down some sort of Lisp style It that Lisp style is deliberately but Lisp looks different from most and unlikely to hit on good style conventions by best book read on writing serious Lisp code is of Artificial Intelligence If you think of it as a Lisp programming book with all the examples from the AI field works better that way than thinking of it as an AI book that uses There may be but I read them If nothing Paul book last I available free under also an excellent but with a different focus than
there a recent version of the SQLHelper class out been using one for a few years now and was wondering if there is a new version out there for Framework or I prefer this on small projects vs Microsoft Data App Block I use on larger came across this link
constructor of a class is very important concept in most by providing state and the means to manipulate that allow the easier maintenance of The constructors role is to get the class into a state that conforms to those invariants throws thus forbidding usage of an invliad is somewhat looser than intended in many languages since the constructor is allowed to pass its own reference elsewhere but this is at least under the control of the class such it can know that it is in a sufficiently stable and valid state for it to be accessible to the rest of the makes this complex since B A in a very real sense and thus can invoke any of the methods provided by The parts of B that are A should therefore get their chance to initialize themselves before B gets a look thus the constructor for A is called before the real work of the B constructor
there a way to mount a folder on the hard disk as a device in The intend here is to provide the user with an easy way to get to a folder that my application uses to store I want my user to go searching for data in Application I would rather allow them to make this data available as a mounted volume or device in I would also like this volume or device to be so that if the user makes any changes to the data the changes will get reflected in the original there a way to do this in carbon or a folder as a device in Finder using
want to use phpDocumentor classes for parsing of my own PHP documentation and working with I can do this but pretty sure that phpDocumentor could be problem is that I find any documentation about How exactly should I use for the it possible to use phpDocumentor for parsing of DocBlock
a few effort I was able to make this although information on the Internet for doing such binary manipulation is fairly I think it may be useful for especially when dealing with Data so detailed my work
am hoping someone can help me by pointing in the right direction with a problem I want to be able to create appointments using server and sync those to my device using pocket On the device I want to be able to open the appointments application on the clicking on a menu option and pass the appointment details to another application I am writing How easy is this to do and where is the best place to start looking for working how to pass data between outlook and my read the POOM section on msdn and think I can do the menu option but dont know the best way to tackle the The Other application is written in pocket outlook and
have several buttons in various sizers and they expand in the way that I want them when I add the parent to a new that is used to add a border around all the elements in the the sizer that has been added functions correctly but not following code demonstrates the def frame return title def panel sizer button1 buttonSizer buttonDelete buttonEdit buttonNew mainSizer app out lines and and uncommenting lines and removes the extra BoxSizer and shows how I expect everything to function the whitespace of am completely stuck with this problem and still have no clue as to how to fix Items in BoxSizer expand only
yellow screen of death is served by the default order to intercept you would need to add another HTTPHandler in front of it that intercepts all uncaught that you could do whatever you want for your error a way to directly jump to Visual Studio would be I could see it done in IE via a
you have created all the city icons and placed them on stage and given them instance names then put them in an This is just to make things easier to we need to add the code to get the balloon to You mentioned animating it as Place your animation of a balloon growing in the underneath your Give it an instance name for example we need to add the We will loop over our array so we only have to write it of manually adding to listeners to every city icon movielip we can loop over all the items in the i var as any animating of maybe you could labels so instead of changing visible change alpha when your balloon to where the city icon refers to the object you have added the listener move the balloons position to the may want to add an offset so its not directly overthe which city instance icon we rolled worry about this for remaining as can place an instance of the balloon called already on stage and set visible to or you can create and remove as This is just a guide take it as as this is just off the top of my
